cpu_test.vcd
$date
	Sat Mar 21 12:41:42 2026
$end
$version
	Icarus Verilog
$end
$timescale
	1ps
$end
$scope module top_tb $end
$var reg 1 ! clk $end
$var reg 1 " reset $end
$scope module uut $end
$var wire 1 # clk $end
$var wire 32 $ ex_alu_result [31:0] $end
$var wire 32 % ex_branch_target [31:0] $end
$var wire 32 & ex_jalr_target [31:0] $end
$var wire 32 ' ex_mem_fwd_val [31:0] $end
$var wire 32 ( ex_srcB_mux [31:0] $end
$var wire 1 ) ex_zero $end
$var wire 1 * flush $end
$var wire 4 + id_alu_control [3:0] $end
$var wire 1 , id_alu_src $end
$var wire 2 - id_alu_src1 [1:0] $end
$var wire 1 . id_branch $end
$var wire 32 / id_imm_ext [31:0] $end
$var wire 1 0 id_jalr $end
$var wire 1 1 id_jump $end
$var wire 1 2 id_mem_write $end
$var wire 32 3 id_rd1 [31:0] $end
$var wire 32 4 id_rd2 [31:0] $end
$var wire 1 5 id_reg_write $end
$var wire 2 6 id_result_src [1:0] $end
$var wire 32 7 if_instr [31:0] $end
$var wire 32 8 mem_read_data [31:0] $end
$var wire 32 9 pc_next [31:0] $end
$var wire 32 : pc_out [31:0] $end
$var wire 32 ; pc_plus4 [31:0] $end
$var wire 1 < reset $end
$var wire 1 = stall $end
$var reg 1 > ex_branch_taken $end
$var reg 32 ? ex_mem_alu_result [31:0] $end
$var reg 1 @ ex_mem_mem_write $end
$var reg 32 A ex_mem_pc_plus4 [31:0] $end
$var reg 5 B ex_mem_rd [4:0] $end
$var reg 32 C ex_mem_rd2 [31:0] $end
$var reg 1 D ex_mem_reg_write $end
$var reg 2 E ex_mem_result_src [1:0] $end
$var reg 32 F ex_rd1_fwd [31:0] $end
$var reg 32 G ex_rd2_fwd [31:0] $end
$var reg 32 H ex_srcA [31:0] $end
$var reg 2 I forward_a [1:0] $end
$var reg 2 J forward_b [1:0] $end
$var reg 4 K id_ex_alu_control [3:0] $end
$var reg 1 L id_ex_alu_src $end
$var reg 2 M id_ex_alu_src1 [1:0] $end
$var reg 1 N id_ex_branch $end
$var reg 3 O id_ex_funct3 [2:0] $end
$var reg 32 P id_ex_imm_ext [31:0] $end
$var reg 1 Q id_ex_jalr $end
$var reg 1 R id_ex_jump $end
$var reg 1 S id_ex_mem_write $end
$var reg 32 T id_ex_pc [31:0] $end
$var reg 32 U id_ex_pc_plus4 [31:0] $end
$var reg 5 V id_ex_rd [4:0] $end
$var reg 32 W id_ex_rd1 [31:0] $end
$var reg 32 X id_ex_rd2 [31:0] $end
$var reg 1 Y id_ex_reg_write $end
$var reg 2 Z id_ex_result_src [1:0] $end
$var reg 5 [ id_ex_rs1 [4:0] $end
$var reg 5 \ id_ex_rs2 [4:0] $end
$var reg 32 ] if_id_instr [31:0] $end
$var reg 32 ^ if_id_pc [31:0] $end
$var reg 32 _ if_id_pc_plus4 [31:0] $end
$var reg 32 ` mem_wb_alu_result [31:0] $end
$var reg 32 a mem_wb_pc_plus4 [31:0] $end
$var reg 5 b mem_wb_rd [4:0] $end
$var reg 32 c mem_wb_read_data [31:0] $end
$var reg 1 d mem_wb_reg_write $end
$var reg 2 e mem_wb_result_src [1:0] $end
$var reg 32 f wb_result [31:0] $end
$scope module pc_unit $end
$var wire 1 # clk $end
$var wire 1 g en $end
$var wire 32 h pc_next [31:0] $end
$var wire 1 < rst $end
$var reg 32 i pc [31:0] $end
$upscope $end
$scope module pc_adder_unit $end
$var wire 32 j a [31:0] $end
$var wire 32 k y [31:0] $end
$upscope $end
$scope module imem_unit $end
$var wire 32 l a [31:0] $end
$var wire 32 m rd [31:0] $end
$upscope $end
$scope module control_unit $end
$var wire 3 n funct3 [2:0] $end
$var wire 7 o funct7 [6:0] $end
$var wire 7 p opcode [6:0] $end
$var reg 4 q alu_control [3:0] $end
$var reg 1 r alu_src $end
$var reg 2 s alu_src1 [1:0] $end
$var reg 1 t branch $end
$var reg 1 u jalr $end
$var reg 1 v jump $end
$var reg 1 w mem_write $end
$var reg 1 x reg_write $end
$var reg 2 y result_src [1:0] $end
$upscope $end
$scope module reg_unit $end
$var wire 5 z a1 [4:0] $end
$var wire 5 { a2 [4:0] $end
$var wire 5 | a3 [4:0] $end
$var wire 1 # clk $end
$var wire 32 } rd1 [31:0] $end
$var wire 32 ~ rd2 [31:0] $end
$var wire 32 !" wd3 [31:0] $end
$var wire 1 "" we3 $end
$upscope $end
$scope module gen_unit $end
$var wire 32 #" instr [31:0] $end
$var reg 32 $" imm_ext [31:0] $end
$upscope $end
$scope module alu_unit $end
$var wire 4 %" alu_control [3:0] $end
$var wire 32 &" src1 [31:0] $end
$var wire 32 '" src2 [31:0] $end
$var wire 1 ) zero $end
$var reg 32 (" result [31:0] $end
$upscope $end
$scope module dmem_unit $end
$var wire 32 )" a [31:0] $end
$var wire 1 # clk $end
$var wire 32 *" rd [31:0] $end
$var wire 32 +" wd [31:0] $end
$var wire 1 ," we $end
$upscope $end
$upscope $end
$upscope $end
$enddefinitions $end
#0
$dumpvars
x,"
bx +"
bx *"
bx )"
b0 ("
bx '"
bx &"
bx %"
bx $"
bx #"
x""
bx !"
bx ~
bx }
bx |
bx {
bx z
b0 y
0x
0w
0v
0u
0t
b0 s
0r
b0 q
bx p
bx o
bx n
bx m
bx l
bx k
bx j
bx i
bx h
xg
bx f
bx e
xd
bx c
bx b
bx a
bx `
bx _
bx ^
bx ]
bx \
bx [
bx Z
xY
bx X
bx W
bx V
bx U
bx T
xS
xR
xQ
bx P
bx O
xN
bx M
xL
bx K
bx J
bx I
bx H
bx G
bx F
bx E
xD
bx C
bx B
bx A
x@
bx ?
0>
x=
1<
bx ;
bx :
bx 9
bx 8
bx 7
b0 6
05
bx 4
bx 3
02
01
00
bx /
0.
b0 -
0,
b0 +
x*
1)
bx (
bx '
b0 &
bx %
b0 $
0#
1"
0!
$end
#5000
1r
1,
1x
15
b0 3
b0 }
b0 4
b0 ~
b100 9
b100 h
b0 (
b0 '"
b0 H
b0 &"
1)
b0 &
0=
1g
b10100000000000010010011 7
b10100000000000010010011 m
b10011 p
b0 n
b0 o
b0 z
b0 {
b0 $"
b0 /
b0 G
b0 F
b0 ("
b0 $
0*
b0 '
b0 J
b0 I
b0 f
b0 !"
b0 i
b100 ;
b100 k
b0 :
b0 j
b0 l
b0 _
b0 ^
b10011 ]
b10011 #"
b0 \
b0 [
b0 P
b0 %
b0 X
b0 W
b0 U
b0 T
b0 O
b0 V
0L
b0 K
b0 %"
b0 M
b0 Z
0Q
0R
0N
0S
0Y
b0 E
0@
0,"
0D
b0 B
b0 A
b0 C
b0 +"
b0 ?
b0 )"
b0 e
0d
0""
b0 b
b0 |
b0 a
b0 c
b0 `
1!
1#
#10000
0!
0#
0"
0<
#15000
bx 4
bx ~
b1000 9
b1000 h
b101 {
b101 $"
b101 /
b100001000000100010011 7
b100001000000100010011 m
bx c
1L
1Y
b100 _
b10100000000000010010011 ]
b10100000000000010010011 #"
b100 i
b1000 ;
b1000 k
b100 :
b100 j
b100 l
1!
1#
#20000
0!
0#
#25000
0)
b100 &
b1100 9
b1100 h
bx 3
bx }
b101 ("
b101 $
b100010000000110010011 7
b100010000000110010011 m
b1 z
b1 {
b1 $"
b1 /
b101 (
b101 '"
bx G
b1000 i
b1100 ;
b1100 k
b1000 :
b1000 j
b1000 l
b1000 _
b100 ^
b100001000000100010011 ]
b100001000000100010011 #"
b101 \
b1 V
b101 P
b101 %
bx X
b100 U
1D
1!
1#
#30000
0!
0#
#35000
0)
b110 &
b101 '
b101 G
b110 ("
b110 $
b101 H
b101 &"
b10000 9
b10000 h
b10 J
b10 I
b1 (
b1 '"
b101 F
b10 z
b101000000000001000010011 7
b101000000000001000010011 m
1d
1""
b1 B
b100 A
bx C
bx +"
b101 ?
b101 )"
b1 \
b1 [
b10 V
b1 P
bx W
b1000 U
b100 T
b101 %
b1100 _
b1000 ^
b100010000000110010011 ]
b100010000000110010011 #"
b1100 i
b10000 ;
b10000 k
b1100 :
b1100 j
b1100 l
1!
1#
#40000
0!
0#
#45000
b111 ("
b111 $
b110 H
b110 &"
b110 F
b10100 9
b10100 h
b0 3
b0 }
b110 '
b10011 7
b10011 m
b0 z
b1010 {
b1010 $"
b1010 /
b1 J
b101 f
b101 !"
b10000 i
b10100 ;
b10100 k
b10000 :
b10000 j
b10000 l
b10000 _
b1100 ^
b101000000000001000010011 ]
b101000000000001000010011 #"
b10 [
b11 V
b1100 U
b1000 T
b1001 %
b10 B
b1000 A
b101 C
b101 +"
b110 ?
b110 )"
b1 b
b1 |
b100 a
b101 `
1!
1#
#50000
0!
0#
#55000
b0 H
b0 &"
b1010 &
b111 '
bx G
b0 F
b1010 ("
b1010 $
b0 4
b0 ~
b11000 9
b11000 h
b110 f
b110 !"
b0 J
b0 I
b1010 (
b1010 '"
b0 {
b0 $"
b0 /
b10000100000001010010011 7
b10000100000001010010011 m
b10 b
b10 |
b1000 a
b110 `
b11 B
b1100 A
b111 ?
b111 )"
b1010 \
b0 [
b100 V
b1010 P
b0 W
b10000 U
b1100 T
b10110 %
b10100 _
b10000 ^
b10011 ]
b10011 #"
b10100 i
b11000 ;
b11000 k
b10100 :
b10100 j
b10100 l
1!
1#
#60000
0!
0#
#65000
1)
b0 &
b11100 9
b11100 h
bx 3
bx }
bx 4
bx ~
b0 ("
b0 $
b1010 '
b100000010000000100011 7
b100000010000000100011 m
b100 z
b100 {
b100 $"
b100 /
b0 (
b0 '"
b0 G
b111 f
b111 !"
b11000 i
b11100 ;
b11100 k
b11000 :
b11000 j
b11000 l
b11000 _
b10100 ^
b10000100000001010010011 ]
b10000100000001010010011 #"
b0 \
b0 V
b0 P
b0 X
b10100 U
b10000 T
b10000 %
b100 B
b10000 A
bx C
bx +"
b1010 ?
b1010 )"
b11 b
b11 |
b1100 a
b111 `
1!
1#
#70000
0!
0#
#75000
0)
b1110 &
b0 '
b1110 ("
b1110 $
b1010 H
b1010 &"
1w
12
1r
1,
0x
05
b0 3
b0 }
b101 4
b101 ~
b100000 9
b100000 h
b1010 f
b1010 !"
b1 J
b1 I
b100 (
b100 '"
b1010 G
b1010 F
b100011 p
b10 n
b0 z
b1 {
b0 $"
b0 /
b10011 7
b10011 m
b100 b
b100 |
b10000 a
b1010 `
b0 B
b10100 A
b0 C
b0 +"
b0 ?
b0 )"
b100 \
b100 [
b101 V
b100 P
bx X
bx W
b11000 U
b10100 T
b11000 %
b11100 _
b11000 ^
b100000010000000100011 ]
b100000010000000100011 #"
b11100 i
b100000 ;
b100000 k
b11100 :
b11100 j
b11100 l
1!
1#
#80000
0!
0#
#85000
1)
b0 &
b100100 9
b100100 h
1x
15
0w
02
1r
1,
b0 4
b0 ~
b0 ("
b0 $
b0 H
b0 &"
b1110 '
b10011 p
b0 n
b0 {
b0 (
b0 '"
b101 G
b0 F
b0 J
b0 I
b0 f
b0 !"
b100000 i
b100100 ;
b100100 k
b100000 :
b100000 j
b100000 l
b100000 _
b11100 ^
b10011 ]
b10011 #"
1S
0Y
b10 O
b1 \
b0 [
b0 V
b0 P
b101 X
b0 W
b11100 U
b11000 T
b11000 %
b101 B
b11000 A
b1010 C
b1010 +"
b1110 ?
b1110 )"
b0 b
b0 |
b10100 a
b0 `
1!
1#
#90000
0!
0#
#95000
b0 '
b101000 9
b101000 h
b1110 f
b1110 !"
b0 G
b101 b
b101 |
b11000 a
b1110 `
1@
1,"
0D
b0 B
b11100 A
b101 C
b101 +"
b0 ?
b0 )"
0S
1Y
b0 O
b0 \
b0 X
b100000 U
b11100 T
b11100 %
b100100 _
b100000 ^
b100100 i
b101000 ;
b101000 k
b100100 :
b100100 j
b100100 l
1!
1#
#100000
0!
0#
#105000
b101100 9
b101100 h
b10001100000011 7
b10001100000011 m
b0 f
b0 !"
b101000 i
b101100 ;
b101100 k
b101000 :
b101000 j
b101000 l
b101 8
b101 *"
b101000 _
b100100 ^
b100100 U
b100000 T
b100000 %
0@
0,"
1D
b100000 A
b0 C
b0 +"
0d
0""
b0 b
b0 |
b11100 a
b0 `
1!
1#
#110000
0!
0#
#115000
b1 y
b1 6
1r
1,
1x
15
b110000 9
b110000 h
b11 p
b10 n
b100110000001110010011 7
b100110000001110010011 m
1d
1""
b100000 a
b101 c
b100100 A
b101000 U
b100100 T
b100100 %
b101100 _
b101000 ^
b10001100000011 ]
b10001100000011 #"
b101100 i
b110000 ;
b110000 k
b101100 :
b101100 j
b101100 l
1!
1#
#120000
0!
0#
#125000
1=
0g
b110100 9
b110100 h
b0 y
b0 6
1r
1,
1x
15
bx 3
bx }
b101 4
b101 ~
b10011 7
b10011 m
b10011 p
b0 n
b110 z
b1 {
b1 $"
b1 /
b110000 i
b110100 ;
b110100 k
b110000 :
b110000 j
b110000 l
b110000 _
b101100 ^
b100110000001110010011 ]
b100110000001110010011 #"
b1 Z
b10 O
b110 V
b101100 U
b101000 T
b101000 %
b101000 A
b100100 a
1!
1#
#130000
0!
0#
#135000
0=
1g
b101000 a
b1 E
b110 B
b101100 A
b0 U
b0 T
b0 %
b0 O
b0 V
0L
b0 Z
0Y
1!
1#
#140000
0!
0#
#145000
0)
b110 &
b111000 9
b111000 h
b0 3
b0 }
b0 4
b0 ~
b110 ("
b110 $
b101 H
b101 &"
b0 z
b0 {
b0 $"
b0 /
b1 (
b1 '"
b101 G
b101 F
b1 I
b101 f
b101 !"
b110100 i
b111000 ;
b111000 k
b110100 :
b110100 j
b110100 l
b110100 _
b110000 ^
b10011 ]
b10011 #"
1L
1Y
b1 \
b110 [
b111 V
b1 P
b101 X
bx W
b110000 U
b101100 T
b101101 %
b0 E
0D
b0 B
b0 A
b1 e
b110 b
b110 |
b101100 a
1!
1#
#150000
0!
0#
#155000
1)
b0 H
b0 &"
b0 &
b110 '
b0 F
b0 ("
b0 $
b111100 9
b111100 h
b0 f
b0 !"
bx 8
bx *"
b0 I
b0 (
b0 '"
b0 G
b0 e
0d
0""
b0 b
b0 |
b0 a
1D
b111 B
b110000 A
b101 C
b101 +"
b110 ?
b110 )"
b0 \
b0 [
b0 V
b0 P
b0 X
b0 W
b110100 U
b110000 T
b110000 %
b111000 _
b110100 ^
b111000 i
b111100 ;
b111100 k
b111000 :
b111000 j
b111000 l
1!
1#
#160000
0!
0#
#165000
b1000000 9
b1000000 h
b0 '
b1000001000000010110011 7
b1000001000000010110011 m
b101 8
b101 *"
b110 f
b110 !"
b111100 i
b1000000 ;
b1000000 k
b111100 :
b111100 j
b111100 l
b111100 _
b111000 ^
b111000 U
b110100 T
b110100 %
b0 B
b110100 A
b0 C
b0 +"
b0 ?
b0 )"
1d
1""
b111 b
b111 |
b110000 a
bx c
b110 `
1!
1#
#170000
0!
0#
#175000
0r
0,
1x
15
b101 3
b101 }
b110 4
b110 ~
b1000100 9
b1000100 h
b0 f
b0 !"
b110011 p
b1 z
b10 {
b100001000000100110011 7
b100001000000100110011 m
b0 b
b0 |
b110100 a
b101 c
b0 `
b111000 A
b111100 U
b111000 T
b111000 %
b1000000 _
b111100 ^
b1000001000000010110011 ]
b1000001000000010110011 #"
b1000000 i
b1000100 ;
b1000100 k
b1000000 :
b1000000 j
b1000000 l
1!
1#
#180000
0!
0#
#185000
0)
b1010 &
b1001000 9
b1001000 h
b101 4
b101 ~
b1011 ("
b1011 $
b101 H
b101 &"
b10011 7
b10011 m
b1 {
b110 (
b110 '"
b110 G
b101 F
b1000100 i
b1001000 ;
b1001000 k
b1000100 :
b1000100 j
b1000100 l
b1000100 _
b1000000 ^
b100001000000100110011 ]
b100001000000100110011 #"
0L
b10 \
b1 [
b1 V
b110 X
b101 W
b1000000 U
b111100 T
b111100 %
b111100 A
b111000 a
1!
1#
#190000
0!
0#
#195000
0)
b10110 &
b1011 H
b1011 &"
b10110 ("
b10110 $
b1011 '
b1011 F
b1011 (
b1011 '"
1r
1,
1x
15
b0 3
b0 }
b0 4
b0 ~
b1001100 9
b1001100 h
bx 8
bx *"
b10 J
b10 I
b1011 G
b10011 p
b0 z
b0 {
b111100 a
b1 B
b1000000 A
b110 C
b110 +"
b1011 ?
b1011 )"
b1 \
b10 V
b101 X
b1000100 U
b1000000 T
b1000000 %
b1001000 _
b1000100 ^
b10011 ]
b10011 #"
b1001000 i
b1001100 ;
b1001100 k
b1001000 :
b1001000 j
b1001000 l
1!
1#
#200000
0!
0#
#205000
1)
b0 &
b1010000 9
b1010000 h
b0 ("
b0 $
b0 H
b0 &"
b10110 '
b0 (
b0 '"
b0 G
b0 F
b0 J
b0 I
b1011 f
b1011 !"
b1001100 i
b1010000 ;
b1010000 k
b1001100 :
b1001100 j
b1001100 l
b1001100 _
b1001000 ^
1L
b0 \
b0 [
b0 V
b0 X
b0 W
b1001000 U
b1000100 T
b1000100 %
b10 B
b1000100 A
b1011 C
b1011 +"
b10110 ?
b10110 )"
b1 b
b1 |
b1000000 a
bx c
b1011 `
1!
1#
#210000
0!
0#
#215000
b0 '
b1010100 9
b1010100 h
b10110 f
b10110 !"
b101 8
b101 *"
b1010000000000010000010011 7
b1010000000000010000010011 m
b10 b
b10 |
b1000100 a
b10110 `
b0 B
b1001000 A
b0 C
b0 +"
b0 ?
b0 )"
b1001100 U
b1001000 T
b1001000 %
b1010000 _
b1001100 ^
b1010000 i
b1010100 ;
b1010100 k
b1010000 :
b1010000 j
b1010000 l
1!
1#
#220000
0!
0#
#225000
b1011000 9
b1011000 h
bx 4
bx ~
b100000000010000000100011 7
b100000000010000000100011 m
b10100 {
b10100 $"
b10100 /
b0 f
b0 !"
b1010100 i
b1011000 ;
b1011000 k
b1010100 :
b1010100 j
b1010100 l
b1010100 _
b1010000 ^
b1010000000000010000010011 ]
b1010000000000010000010011 #"
b1010000 U
b1001100 T
b1001100 %
b1001100 A
b0 b
b0 |
b1001000 a
b101 c
b0 `
1!
1#
#230000
0!
0#
#235000
0)
b10100 &
b10100 ("
b10100 $
1w
12
1r
1,
0x
05
b1011100 9
b1011100 h
b10100 (
b10100 '"
bx G
b100011 p
b10 n
b1000 {
b0 $"
b0 /
b10011 7
b10011 m
b1001100 a
b1010000 A
b10100 \
b1000 V
b10100 P
bx X
b1010100 U
b1010000 T
b1100100 %
b1011000 _
b1010100 ^
b100000000010000000100011 ]
b100000000010000000100011 #"
b1011000 i
b1011100 ;
b1011100 k
b1011000 :
b1011000 j
b1011000 l
1!
1#
#240000
0!
0#
#245000
1)
b0 &
b1100000 9
b1100000 h
1x
15
0w
02
1r
1,
b0 4
b0 ~
b0 ("
b0 $
b10100 G
b10100 '
b10011 p
b0 n
b0 {
b0 (
b0 '"
b10 J
bx 8
bx *"
b1011100 i
b1100000 ;
b1100000 k
b1011100 :
b1011100 j
b1011100 l
b1011100 _
b1011000 ^
b10011 ]
b10011 #"
1S
0Y
b10 O
b1000 \
b0 V
b0 P
b1011000 U
b1010100 T
b1010100 %
b1000 B
b1010100 A
bx C
bx +"
b10100 ?
b10100 )"
b1010000 a
1!
1#
#250000
0!
0#
#255000
b0 '
b0 G
b1100100 9
b1100100 h
b10100 f
b10100 !"
b101 8
b101 *"
b0 J
b1000 b
b1000 |
b1010100 a
bx c
b10100 `
1@
1,"
0D
b0 B
b1011000 A
b10100 C
b10100 +"
b0 ?
b0 )"
0S
1Y
b0 O
b0 \
b0 X
b1011100 U
b1011000 T
b1011000 %
b1100000 _
b1011100 ^
b1100000 i
b1100100 ;
b1100100 k
b1100000 :
b1100000 j
b1100000 l
1!
1#
#260000
0!
0#
#265000
b1101000 9
b1101000 h
b10010010000011 7
b10010010000011 m
b0 f
b0 !"
b1100100 i
b1101000 ;
b1101000 k
b1100100 :
b1100100 j
b1100100 l
b10100 8
b10100 *"
b1100100 _
b1100000 ^
b1100000 U
b1011100 T
b1011100 %
0@
0,"
1D
b1011100 A
b0 C
b0 +"
0d
0""
b0 b
b0 |
b1011000 a
b101 c
b0 `
1!
1#
#270000
0!
0#
#275000
b1 y
b1 6
1r
1,
1x
15
b1101100 9
b1101100 h
b11 p
b10 n
b10011 7
b10011 m
1d
1""
b1011100 a
b10100 c
b1100000 A
b1100100 U
b1100000 T
b1100000 %
b1101000 _
b1100100 ^
b10010010000011 ]
b10010010000011 #"
b1101000 i
b1101100 ;
b1101100 k
b1101000 :
b1101000 j
b1101000 l
1!
1#
#280000
0!
0#
#285000
b1110000 9
b1110000 h
b0 y
b0 6
1r
1,
1x
15
b10011 p
b0 n
b1101100 i
b1110000 ;
b1110000 k
b1101100 :
b1101100 j
b1101100 l
b1101100 _
b1101000 ^
b10011 ]
b10011 #"
b1 Z
b10 O
b1001 V
b1101000 U
b1100100 T
b1100100 %
b1100100 A
b1100000 a
1!
1#
#290000
0!
0#
#295000
b1110100 9
b1110100 h
b1100100 a
b1 E
b1001 B
b1101000 A
b0 Z
b0 O
b0 V
b1101100 U
b1101000 T
b1101000 %
b1110000 _
b1101100 ^
b1110000 i
b1110100 ;
b1110100 k
b1110000 :
b1110000 j
b1110000 l
1!
1#
#300000
0!
0#
#305000
b1111000 9
b1111000 h
b10100000000010100010011 7
b10100000000010100010011 m
b10100 f
b10100 !"
b1110100 i
b1111000 ;
b1111000 k
b1110100 :
b1110100 j
b1110100 l
b1110100 _
b1110000 ^
b1110000 U
b1101100 T
b1101100 %
b0 E
b0 B
b1101100 A
b1 e
b1001 b
b1001 |
b1101000 a
1!
1#
#310000
0!
0#
#315000
b1110 4
b1110 ~
b1111100 9
b1111100 h
b0 f
b0 !"
b101 {
b101 $"
b101 /
b10100000000010110010011 7
b10100000000010110010011 m
b0 e
b0 b
b0 |
b1101100 a
b1110000 A
b1110100 U
b1110000 T
b1110000 %
b1111000 _
b1110100 ^
b10100000000010100010011 ]
b10100000000010100010011 #"
b1111000 i
b1111100 ;
b1111100 k
b1111000 :
b1111000 j
b1111000 l
1!
1#
#320000
0!
0#
#325000
0)
b100 &
b10000000 9
b10000000 h
b101 ("
b101 $
b101101010000011001100011 7
b101101010000011001100011 m
b101 (
b101 '"
b1110 G
b1111100 i
b10000000 ;
b10000000 k
b1111100 :
b1111100 j
b1111100 l
b1111100 _
b1111000 ^
b10100000000010110010011 ]
b10100000000010110010011 #"
b101 \
b1010 V
b101 P
b1110 X
b1111000 U
b1110100 T
b1111001 %
b1110100 A
b1110000 a
1!
1#
#330000
0!
0#
#335000
b101 '
b1 q
b1 +
1t
1.
0r
0,
0x
05
bx 3
bx }
bx 4
bx ~
b10000100 9
b10000100 h
bx 8
bx *"
b1100011 p
b1010 z
b1011 {
b1100 $"
b1100 /
b100000000011000010011 7
b100000000011000010011 m
b1110100 a
b1010 B
b1111000 A
b1110 C
b1110 +"
b101 ?
b101 )"
b1011 V
b1111100 U
b1111000 T
b1111101 %
b10000000 _
b1111100 ^
b101101010000011001100011 ]
b101101010000011001100011 #"
b10000000 i
b10000100 ;
b10000100 k
b10000000 :
b10000000 j
b10000000 l
1!
1#
#340000
0!
0#
#345000
1*
1>
1)
b10001000 9
b10001000 h
1r
1,
1x
15
0t
0.
b0 q
b0 +
b0 3
b0 }
b1011 4
b1011 ~
b0 &
b101 H
b101 &"
b10011 p
b0 z
b1 {
b1 $"
b1 /
b0 ("
b0 $
b101 G
b101 F
b10 J
b1 I
b101 f
b101 !"
b10000100 i
b10001000 ;
b10001000 k
b10000100 :
b10000100 j
b10000100 l
b10000100 _
b10000000 ^
b100000000011000010011 ]
b100000000011000010011 #"
b1 K
b1 %"
1N
0L
0Y
b1011 \
b1010 [
b1100 V
b1100 P
bx X
bx W
b10000000 U
b1111100 T
b10001000 %
b1011 B
b1111100 A
b1010 b
b1010 |
b1111000 a
bx c
b101 `
1!
1#
#350000
0!
0#
#355000
b0 (
b0 '"
b0 H
b0 &"
0*
b0 '
b0 G
b0 F
b10001100 9
b10001100 h
1)
b0 &
b0 4
b0 ~
b10100 8
b10100 *"
b0 J
b0 I
b0 ("
b0 $
0>
b0 {
b0 $"
b0 /
b11000010011 7
b11000010011 m
b1011 b
b1011 |
b1111100 a
0D
b1100 B
b10000000 A
b101 C
b101 +"
b0 ?
b0 )"
b0 \
b0 [
b0 P
b0 X
b0 W
b0 U
b0 T
b0 %
b0 V
b0 K
b0 %"
0N
b0 _
b0 ^
b10011 ]
b10011 #"
b10001000 i
b10001100 ;
b10001100 k
b10001000 :
b10001000 j
b10001000 l
1!
1#
#360000
0!
0#
#365000
b10010000 9
b10010000 h
bx 7
bx m
b0 f
b0 !"
b10001100 i
b10010000 ;
b10010000 k
b10001100 :
b10001100 j
b10001100 l
b10001100 _
b10001000 ^
b11000010011 ]
b11000010011 #"
1L
1Y
b0 B
b0 A
b0 C
b0 +"
0d
0""
b1100 b
b1100 |
b10000000 a
b10100 c
b0 `
1!
1#
#370000
0!
0#
#375000
0r
0,
0x
05
bx 3
bx }
bx 4
bx ~
b10010100 9
b10010100 h
bx p
bx n
bx o
bx z
bx {
b0 b
b0 |
b0 a
1D
b1100 V
b10001100 U
b10001000 T
b10001000 %
b10010000 _
b10001100 ^
bx ]
bx #"
b10010000 i
b10010100 ;
b10010100 k
b10010000 :
b10010000 j
b10010000 l
1!
1#
#380000
0!
0#
#385000
x)
bx0 &
b10011000 9
b10011000 h
bx ("
bx $
bx H
bx &"
bx (
bx '"
bx G
bx F
b10010100 i
b10011000 ;
b10011000 k
b10010100 :
b10010100 j
b10010100 l
b10010100 _
b10010000 ^
0L
0Y
bx O
bx \
bx [
bx V
bx X
bx W
b10010000 U
b10001100 T
b10001100 %
b1100 B
b10001100 A
1d
1""
1!
1#
#390000
0!
0#
#395000
bx '
b10011100 9
b10011100 h
bx 8
bx *"
b1100 b
b1100 |
b10001100 a
0D
bx B
b10010000 A
bx C
bx +"
bx ?
bx )"
b10010100 U
b10010000 T
b10010000 %
b10011000 _
b10010100 ^
b10011000 i
b10011100 ;
b10011100 k
b10011000 :
b10011000 j
b10011000 l
1!
1#
#400000
0!
0#
#405000
b10100000 9
b10100000 h
bx f
bx !"
b10011100 i
b10100000 ;
b10100000 k
b10011100 :
b10011100 j
b10011100 l
b10011100 _
b10011000 ^
b10011000 U
b10010100 T
b10010100 %
b10010100 A
0d
0""
bx b
bx |
b10010000 a
bx c
bx `
1!
1#
#410000
0!
0#
#415000
b10100100 9
b10100100 h
b10010100 a
b10011000 A
b10011100 U
b10011000 T
b10011000 %
b10100000 _
b10011100 ^
b10100000 i
b10100100 ;
b10100100 k
b10100000 :
b10100000 j
b10100000 l
1!
1#
#420000
0!
0#
#425000
b10101000 9
b10101000 h
b10100100 i
b10101000 ;
b10101000 k
b10100100 :
b10100100 j
b10100100 l
b10100100 _
b10100000 ^
b10100000 U
b10011100 T
b10011100 %
b10011100 A
b10011000 a
1!
1#
#430000
0!
0#
#435000
b10101100 9
b10101100 h
b10011100 a
b10100000 A
b10100100 U
b10100000 T
b10100000 %
b10101000 _
b10100100 ^
b10101000 i
b10101100 ;
b10101100 k
b10101000 :
b10101000 j
b10101000 l
1!
1#
#440000
0!
0#
#445000
b10110000 9
b10110000 h
b10101100 i
b10110000 ;
b10110000 k
b10101100 :
b10101100 j
b10101100 l
b10101100 _
b10101000 ^
b10101000 U
b10100100 T
b10100100 %
b10100100 A
b10100000 a
1!
1#
#450000
0!
0#
#455000
b10110100 9
b10110100 h
b10100100 a
b10101000 A
b10101100 U
b10101000 T
b10101000 %
b10110000 _
b10101100 ^
b10110000 i
b10110100 ;
b10110100 k
b10110000 :
b10110000 j
b10110000 l
1!
1#
#460000
0!
0#
#465000
b10111000 9
b10111000 h
b10110100 i
b10111000 ;
b10111000 k
b10110100 :
b10110100 j
b10110100 l
b10110100 _
b10110000 ^
b10110000 U
b10101100 T
b10101100 %
b10101100 A
b10101000 a
1!
1#
#470000
0!
0#
#475000
b10111100 9
b10111100 h
b10101100 a
b10110000 A
b10110100 U
b10110000 T
b10110000 %
b10111000 _
b10110100 ^
b10111000 i
b10111100 ;
b10111100 k
b10111000 :
b10111000 j
b10111000 l
1!
1#
#480000
0!
0#
#485000
b11000000 9
b11000000 h
b10111100 i
b11000000 ;
b11000000 k
b10111100 :
b10111100 j
b10111100 l
b10111100 _
b10111000 ^
b10111000 U
b10110100 T
b10110100 %
b10110100 A
b10110000 a
1!
1#
#490000
0!
0#
#495000
b11000100 9
b11000100 h
b10110100 a
b10111000 A
b10111100 U
b10111000 T
b10111000 %
b11000000 _
b10111100 ^
b11000000 i
b11000100 ;
b11000100 k
b11000000 :
b11000000 j
b11000000 l
1!
1#
#500000
0!
0#
#505000
b11001000 9
b11001000 h
b11000100 i
b11001000 ;
b11001000 k
b11000100 :
b11000100 j
b11000100 l
b11000100 _
b11000000 ^
b11000000 U
b10111100 T
b10111100 %
b10111100 A
b10111000 a
1!
1#
#510000
0!
0#
#515000
b11001100 9
b11001100 h
b10111100 a
b11000000 A
b11000100 U
b11000000 T
b11000000 %
b11001000 _
b11000100 ^
b11001000 i
b11001100 ;
b11001100 k
b11001000 :
b11001000 j
b11001000 l
1!
1#
#520000
0!
0#
#525000
b11010000 9
b11010000 h
b11001100 i
b11010000 ;
b11010000 k
b11001100 :
b11001100 j
b11001100 l
b11001100 _
b11001000 ^
b11001000 U
b11000100 T
b11000100 %
b11000100 A
b11000000 a
1!
1#
#530000
0!
0#
#535000
b11010100 9
b11010100 h
b11000100 a
b11001000 A
b11001100 U
b11001000 T
b11001000 %
b11010000 _
b11001100 ^
b11010000 i
b11010100 ;
b11010100 k
b11010000 :
b11010000 j
b11010000 l
1!
1#
#540000
0!
0#
#545000
b11011000 9
b11011000 h
b11010100 i
b11011000 ;
b11011000 k
b11010100 :
b11010100 j
b11010100 l
b11010100 _
b11010000 ^
b11010000 U
b11001100 T
b11001100 %
b11001100 A
b11001000 a
1!
1#
#550000
0!
0#
